--- # index for c90a0ff*
c90a0ffbe371d6027a161029d413b9b038e026e5: 1516286759,CMakeLists.txt,zb2rhiaw2ecYM1whf7p18acgogH3NSYKxqApx9orj3JbSM4e9
c90a0ffc214d66d6091adf98706cf53467528023: 1516286852,NoTest-stderr.txt,zb2rhdZRS3F9r37BrKNggzCVq2ksEzTx1qhc7VzumYPF5kHHx
